<?xml version="1.0" encoding="UTF-8" standalone="no"?>
<svg
   xmlns:dc="http://purl.org/dc/elements/1.1/"
   xmlns:cc="http://creativecommons.org/ns#"
   xmlns:rdf="http://www.w3.org/1999/02/22-rdf-syntax-ns#"
   xmlns:svg="http://www.w3.org/2000/svg"
   xmlns="http://www.w3.org/2000/svg"
   width="143.9043"
   height="20.003618"
   viewBox="0 0 1439.0429 200.03618"
   role="img"
   aria-label="subjects: status"
   version="1.1"
   id="svg32">
  <metadata
     id="metadata38">
    <rdf:RDF>
      <cc:Work
         rdf:about="">
        <dc:format>image/svg+xml</dc:format>
        <dc:type
           rdf:resource="http://purl.org/dc/dcmitype/StillImage" />
        <dc:title>subjects: status</dc:title>
      </cc:Work>
    </rdf:RDF>
  </metadata>
  <defs
     id="defs36" />
  <title
     id="title2">subjects: status</title>
  <linearGradient
     id="a"
     x2="0"
     y2="480.20828"
     gradientTransform="matrix(2.4010414,0,0,0.41648594,9.7311025,0.01208584)"
     x1="0"
     y1="0"
     gradientUnits="userSpaceOnUse">
    <stop
       offset="0"
       stop-opacity=".1"
       stop-color="#EEE"
       id="stop4" />
    <stop
       offset="1"
       stop-opacity=".1"
       id="stop6" />
  </linearGradient>
  <mask
     id="m">
    <rect
       width="1153"
       height="200"
       rx="30"
       fill="#ffffff"
       id="rect9"
       x="0"
       y="0" />
  </mask>
  <path
     id="rect12"
     style="fill:#ffffff;stroke:#d50101;stroke-width:19.4622;stroke-miterlimit:4;stroke-dasharray:none;stroke-opacity:1"
     d="m 51.686183,9.7311001 c -23.243117,0 -41.9550829,16.1061219 -41.9550829,36.1123859 V 154.18065 c 0,20.00626 18.7119659,36.11237 41.9550829,36.11237 h 725.261597 18.90846 41.95508 V 154.18065 45.843486 9.7311001 h -41.95508 -18.90846 z" />
  <path
     id="rect3121"
     style="opacity:0.99315;fill:#d50101;fill-opacity:1;stroke:none;stroke-width:25.0129;stroke-linecap:round;stroke-linejoin:round;stroke-miterlimit:4;stroke-dasharray:none;stroke-opacity:1;paint-order:stroke markers fill"
     d="M 789.49218,0.01206946 V 40.012068 160.03159 200.01206 h 39.80469 c 0.067,3.2e-4 0.1284,0.02 0.1953,0.02 H 1399.043 c 22.16,0 40,-17.84 40,-40 V 40.012068 c 0,-22.16 -17.84,-39.99999854 -40,-39.99999854 H 872.83202 829.49218 Z" />
  <text
     xml:space="preserve"
     style="font-size:110px;line-height:1.25;font-family:sans-serif;letter-spacing:0px;text-anchor:start;fill:#555555;fill-opacity:1;stroke-width:10"
     x="205.97171"
     y="138.63814"
     id="text946"><tspan
       id="tspan944"
       x="205.97171"
       y="138.63814"
       style="font-size:110px;fill:#555555;fill-opacity:1;stroke-width:10">readiness</tspan></text>
  <g
     id="g2995-6"
     transform="matrix(0.83333355,0,0,0.83333355,17.500001,16.678714)">
    <path
       id="path2202-0"
       style="fill:#ffffff;fill-opacity:1;stroke:none;stroke-width:13.3333;stroke-linecap:butt;stroke-linejoin:miter;stroke-miterlimit:4;stroke-dasharray:none;stroke-opacity:1"
       d="m 105,81.369219 v 85.351551 c 30.59999,-7.66667 53.33333,-39.0677 53.33333,-72.734364 V 81.369219 Z" />
    <path
       id="path2239-6"
       style="fill:#555555;fill-opacity:1;stroke:none;stroke-width:13.3333;stroke-linecap:butt;stroke-linejoin:miter;stroke-miterlimit:4;stroke-dasharray:none;stroke-opacity:1"
       d="m 105,81.369219 h 53.33333 V 53.387448 L 105,33.022865 Z" />
    <path
       id="path2234-2"
       style="fill:#555555;fill-opacity:1;stroke:none;stroke-width:13.3333;stroke-linecap:butt;stroke-linejoin:miter;stroke-miterlimit:4;stroke-dasharray:none;stroke-opacity:1"
       d="m 51.666667,81.369219 v 12.617187 c 0,33.666664 22.733335,65.067694 53.333333,72.734364 V 81.369219 Z" />
    <path
       id="path2244-6"
       style="fill:#ffffff;fill-opacity:1;stroke:none;stroke-width:13.3333;stroke-linecap:butt;stroke-linejoin:miter;stroke-miterlimit:4;stroke-dasharray:none;stroke-opacity:1"
       d="M 51.666667,81.369219 H 105 V 33.022865 L 51.666667,53.387448 Z" />
    <path
       style="fill:none;fill-opacity:1;stroke:#555555;stroke-width:13.3333;stroke-linecap:round;stroke-linejoin:round;stroke-miterlimit:4;stroke-dasharray:none;stroke-opacity:1"
       d="m 105,33.151793 -53.333335,20.36306 v 40.599996 c 0,33.666651 22.733334,65.066651 53.333335,72.733331 30.6,-7.66668 53.33333,-39.06668 53.33333,-72.733331 V 53.514853 Z"
       id="path19-0-1" />
  </g>
  <rect
     width="1439.04"
     height="199.99998"
     fill="url(#a)"
     id="rect16"
     style="fill:url(#a)"
     x="9.7311001"
     y="0.012075611"
     ry="40" />
  <text
     xml:space="preserve"
     style="font-size:110px;line-height:1.25;font-family:sans-serif;letter-spacing:0px;text-anchor:start;fill:#ffffff;stroke-width:10"
     x="837.55219"
     y="138.63814"
     id="text946-35"><tspan
       id="tspan944-62"
       x="837.55219"
       y="138.63814"
       style="font-size:110px;fill:#ffffff;stroke-width:10">undefined</tspan></text>
</svg>
