<?xml version="1.0" encoding="UTF-8" standalone="no"?>
<svg
   xmlns:dc="http://purl.org/dc/elements/1.1/"
   xmlns:cc="http://creativecommons.org/ns#"
   xmlns:rdf="http://www.w3.org/1999/02/22-rdf-syntax-ns#"
   xmlns:svg="http://www.w3.org/2000/svg"
   xmlns="http://www.w3.org/2000/svg"
   xmlns:sodipodi="http://sodipodi.sourceforge.net/DTD/sodipodi-0.dtd"
   xmlns:inkscape="http://www.inkscape.org/namespaces/inkscape"
   width="122.56469"
   height="20"
   viewBox="0 0 1225.6468 200"
   role="img"
   aria-label="subjects: status"
   version="1.1"
   id="svg32"
   sodipodi:docname="strl-stable.svg"
   inkscape:version="1.0.2 (e86c870879, 2021-01-15)"
   inkscape:export-filename="/home/dhbmarcos/pessoas/eu/projetos/badges/stable.png"
   inkscape:export-xdpi="96"
   inkscape:export-ydpi="96">
  <metadata
     id="metadata38">
    <rdf:RDF>
      <cc:Work
         rdf:about="">
        <dc:format>image/svg+xml</dc:format>
        <dc:type
           rdf:resource="http://purl.org/dc/dcmitype/StillImage" />
        <dc:title>subjects: status</dc:title>
      </cc:Work>
    </rdf:RDF>
  </metadata>
  <defs
     id="defs36" />
  <sodipodi:namedview
     pagecolor="#ffffff"
     bordercolor="#666666"
     borderopacity="1"
     objecttolerance="10"
     gridtolerance="10"
     guidetolerance="10"
     inkscape:pageopacity="0"
     inkscape:pageshadow="2"
     inkscape:window-width="1024"
     inkscape:window-height="518"
     id="namedview34"
     showgrid="false"
     showguides="true"
     inkscape:guide-bbox="true"
     fit-margin-top="0"
     fit-margin-left="0"
     fit-margin-right="0"
     fit-margin-bottom="0"
     inkscape:zoom="1.8466398"
     inkscape:cx="61.781047"
     inkscape:cy="-45.785582"
     inkscape:window-x="93"
     inkscape:window-y="213"
     inkscape:window-maximized="0"
     inkscape:current-layer="svg32"
     inkscape:snap-global="true"
     inkscape:snap-bbox="true"
     inkscape:bbox-paths="true"
     inkscape:snap-bbox-edge-midpoints="true"
     inkscape:bbox-nodes="true"
     inkscape:snap-bbox-midpoints="true"
     inkscape:document-rotation="0">
    <sodipodi:guide
       position="0,199.99999"
       orientation="0,1"
       id="guide5778"
       inkscape:label=""
       inkscape:locked="false"
       inkscape:color="rgb(0,0,255)" />
    <sodipodi:guide
       position="0,199.99999"
       orientation="-1,0"
       id="guide5780"
       inkscape:label=""
       inkscape:locked="false"
       inkscape:color="rgb(0,0,255)" />
    <sodipodi:guide
       position="1225.6467,50.148662"
       orientation="1,0"
       id="guide5782" />
    <sodipodi:guide
       position="0,0"
       orientation="0,1"
       id="guide5784"
       inkscape:label=""
       inkscape:locked="false"
       inkscape:color="rgb(0,0,255)" />
  </sodipodi:namedview>
  <title
     id="title2">subjects: status</title>
  <linearGradient
     id="a"
     x2="0"
     y2="480.20828"
     gradientTransform="matrix(2.4010414,0,0,0.41648594,-3.6328125e-5,-6.0555184e-6)"
     x1="0"
     y1="0"
     gradientUnits="userSpaceOnUse">
    <stop
       offset="0"
       stop-opacity=".1"
       stop-color="#EEE"
       id="stop4" />
    <stop
       offset="1"
       stop-opacity=".1"
       id="stop6" />
  </linearGradient>
  <mask
     id="m">
    <rect
       width="1153"
       height="200"
       rx="30"
       fill="#ffffff"
       id="rect9"
       x="0"
       y="0" />
  </mask>
  <path
     id="rect12"
     style="fill:#ffffff;stroke:#00c853;stroke-width:19.4622;stroke-miterlimit:4;stroke-dasharray:none;stroke-opacity:1"
     d="m 51.686159,9.7190306 c -23.243117,0 -41.9550831,16.1061224 -41.9550831,36.1123864 V 154.16858 c 0,20.00626 18.7119661,36.11237 41.9550831,36.11237 H 776.94776 795.85622 837.8113 V 154.16858 45.831417 9.7190306 h -41.95508 -18.90846 z" />
  <path
     id="rect12-2"
     style="fill:#00c853;fill-opacity:1;stroke-width:0.100306"
     d="M 78.949219 0 L 78.949219 4 L 78.949219 16 L 78.949219 20 L 82.949219 20 L 84.753906 20 L 118.56445 20 C 120.78045 20 122.56445 18.216 122.56445 16 L 122.56445 4 C 122.56445 1.7839999 120.78045 0 118.56445 0 L 84.753906 0 L 82.949219 0 L 78.949219 0 z "
     transform="scale(9.9999996)" />
  <text
     xml:space="preserve"
     style="font-size:110px;line-height:1.25;font-family:sans-serif;letter-spacing:0px;text-anchor:start;fill:#555555;stroke-width:10;fill-opacity:1;"
     x="205.97168"
     y="138.62607"
     id="text946"><tspan
       sodipodi:role="line"
       id="tspan944"
       x="205.97168"
       y="138.62607"
       style="font-size:110px;fill:#555555;stroke-width:10;fill-opacity:1;">readiness</tspan></text>
  <g
     id="g2995-6"
     transform="matrix(0.83333355,0,0,0.83333355,17.499977,16.666645)">
    <path
       id="path2202-0"
       style="fill:#ffffff;fill-opacity:1;stroke:none;stroke-width:13.3333;stroke-linecap:butt;stroke-linejoin:miter;stroke-miterlimit:4;stroke-dasharray:none;stroke-opacity:1"
       d="m 105,81.369219 v 85.351551 c 30.59999,-7.66667 53.33333,-39.0677 53.33333,-72.734364 V 81.369219 Z" />
    <path
       id="path2239-6"
       style="fill:#555555;fill-opacity:1;stroke:none;stroke-width:13.3333;stroke-linecap:butt;stroke-linejoin:miter;stroke-miterlimit:4;stroke-dasharray:none;stroke-opacity:1"
       d="m 105,81.369219 h 53.33333 V 53.387448 L 105,33.022865 Z" />
    <path
       id="path2234-2"
       style="fill:#555555;fill-opacity:1;stroke:none;stroke-width:13.3333;stroke-linecap:butt;stroke-linejoin:miter;stroke-miterlimit:4;stroke-dasharray:none;stroke-opacity:1"
       d="m 51.666667,81.369219 v 12.617187 c 0,33.666664 22.733335,65.067694 53.333333,72.734364 V 81.369219 Z" />
    <path
       id="path2244-6"
       style="fill:#ffffff;fill-opacity:1;stroke:none;stroke-width:13.3333;stroke-linecap:butt;stroke-linejoin:miter;stroke-miterlimit:4;stroke-dasharray:none;stroke-opacity:1"
       d="M 51.666667,81.369219 H 105 V 33.022865 L 51.666667,53.387448 Z" />
    <path
       style="fill:none;fill-opacity:1;stroke:#555555;stroke-width:13.3333;stroke-linecap:round;stroke-linejoin:round;stroke-miterlimit:4;stroke-dasharray:none;stroke-opacity:1"
       d="m 105,33.151793 -53.333335,20.36306 v 40.599996 c 0,33.666651 22.733334,65.066651 53.333335,72.733331 30.6,-7.66668 53.33333,-39.06668 53.33333,-72.733331 V 53.514853 Z"
       id="path19-0-1"
       sodipodi:nodetypes="ccscscc" />
  </g>
  <rect
     width="1225.6467"
     height="199.99998"
     fill="url(#a)"
     id="rect16"
     style="fill:url(#a)"
     x="-3.6145018e-05"
     y="2.137841e-06"
     ry="40" />
  <text
     xml:space="preserve"
     style="font-size:110px;line-height:1.25;font-family:sans-serif;letter-spacing:0px;text-anchor:start;fill:#ffffff;stroke-width:10"
     x="837.55219"
     y="138.62607"
     id="text946-35"><tspan
       sodipodi:role="line"
       id="tspan944-62"
       x="837.55219"
       y="138.62607"
       style="font-size:110px;fill:#ffffff;stroke-width:10">stable</tspan></text>
</svg>
